(kicad_pcb (version 20211014) (generator pcbnew)

  (general
    (thickness 1.6)
  )

  (paper "A4")
  (layers
    (0 "F.Cu" signal)
    (31 "B.Cu" signal)
    (32 "B.Adhes" user "B.Adhesive")
    (33 "F.Adhes" user "F.Adhesive")
    (34 "B.Paste" user)
    (35 "F.Paste" user)
    (36 "B.SilkS" user "B.Silkscreen")
    (37 "F.SilkS" user "F.Silkscreen")
    (38 "B.Mask" user)
    (39 "F.Mask" user)
    (40 "Dwgs.User" user "User.Drawings")
    (41 "Cmts.User" user "User.Comments")
    (42 "Eco1.User" user "User.Eco1")
    (43 "Eco2.User" user "User.Eco2")
    (44 "Edge.Cuts" user)
    (45 "Margin" user)
    (46 "B.CrtYd" user "B.Courtyard")
    (47 "F.CrtYd" user "F.Courtyard")
    (48 "B.Fab" user)
    (49 "F.Fab" user)
    (50 "User.1" user)
    (51 "User.2" user)
    (52 "User.3" user)
    (53 "User.4" user)
    (54 "User.5" user)
    (55 "User.6" user)
    (56 "User.7" user)
    (57 "User.8" user)
    (58 "User.9" user)
  )

  (setup
    (pad_to_mask_clearance 0)
    (pcbplotparams
      (layerselection 0x00010fc_ffffffff)
      (disableapertmacros false)
      (usegerberextensions false)
      (usegerberattributes true)
      (usegerberadvancedattributes true)
      (creategerberjobfile true)
      (svguseinch false)
      (svgprecision 6)
      (excludeedgelayer true)
      (plotframeref false)
      (viasonmask false)
      (mode 1)
      (useauxorigin false)
      (hpglpennumber 1)
      (hpglpenspeed 20)
      (hpglpendiameter 15.000000)
      (dxfpolygonmode true)
      (dxfimperialunits true)
      (dxfusepcbnewfont true)
      (psnegative false)
      (psa4output false)
      (plotreference true)
      (plotvalue true)
      (plotinvisibletext false)
      (sketchpadsonfab false)
      (subtractmaskfromsilk false)
      (outputformat 1)
      (mirror false)
      (drillshape 0)
      (scaleselection 1)
      (outputdirectory "tutorial-gerbers")
    )
  )

  (net 0 "")
  (net 1 "Net-(BT1-Pad1)")
  (net 2 "Net-(BT1-Pad2)")
  (net 3 "Net-(D1-Pad2)")

  (footprint "Resistor_THT:R_Axial_DIN0207_L6.3mm_D2.5mm_P10.16mm_Horizontal" (layer "F.Cu")
    (tedit 5AE5139B) (tstamp 6595b9c7-02ee-4647-bde5-6b566e35163e)
    (at 68.58 91.44 180)
    (descr "Resistor, Axial_DIN0207 series, Axial, Horizontal, pin pitch=10.16mm, 0.25W = 1/4W, length*diameter=6.3*2.5mm^2, http://cdn-reichelt.de/documents/datenblatt/B400/1_4W%23YAG.pdf")
    (tags "Resistor Axial_DIN0207 series Axial Horizontal pin pitch 10.16mm 0.25W = 1/4W length 6.3mm diameter 2.5mm")
    (property "Sheetfile" "tutorial.kicad_sch")
    (property "Sheetname" "")
    (path "/b4c08003-7d1e-480f-b89a-36b9dac27931")
    (attr through_hole)
    (fp_text reference "R1" (at 5.08 -2.37) (layer "F.SilkS")
      (effects (font (size 1 1) (thickness 0.15)))
      (tstamp 14769dc5-8525-4984-8b15-a734ee247efa)
    )
    (fp_text value "470" (at 5.08 2.37) (layer "F.Fab")
      (effects (font (size 1 1) (thickness 0.15)))
      (tstamp 19c56563-5fe3-442a-885b-418dbc2421eb)
    )
    (fp_text user "${REFERENCE}" (at 5.08 0) (layer "F.Fab")
      (effects (font (size 1 1) (thickness 0.15)))
      (tstamp 16a9ae8c-3ad2-439b-8efe-377c994670c7)
    )
    (fp_line (start 1.81 -1.37) (end 1.81 1.37) (layer "F.SilkS") (width 0.12) (tstamp 789ca812-3e0c-4a3f-97bc-a916dd9bce80))
    (fp_line (start 8.35 -1.37) (end 1.81 -1.37) (layer "F.SilkS") (width 0.12) (tstamp a17904b9-135e-4dae-ae20-401c7787de72))
    (fp_line (start 1.81 1.37) (end 8.35 1.37) (layer "F.SilkS") (width 0.12) (tstamp cdfb07af-801b-44ba-8c30-d021a6ad3039))
    (fp_line (start 9.12 0) (end 8.35 0) (layer "F.SilkS") (width 0.12) (tstamp db36f6e3-e72a-487f-bda9-88cc84536f62))
    (fp_line (start 1.04 0) (end 1.81 0) (layer "F.SilkS") (width 0.12) (tstamp e4c6fdbb-fdc7-4ad4-a516-240d84cdc120))
    (fp_line (start 8.35 1.37) (end 8.35 -1.37) (layer "F.SilkS") (width 0.12) (tstamp e6b860cc-cb76-4220-acfb-68f1eb348bfa))
    (fp_line (start 11.21 -1.5) (end -1.05 -1.5) (layer "F.CrtYd") (width 0.05) (tstamp 182b2d54-931d-49d6-9f39-60a752623e36))
    (fp_line (start -1.05 -1.5) (end -1.05 1.5) (layer "F.CrtYd") (width 0.05) (tstamp 2dc272bd-3aa2-45b5-889d-1d3c8aac80f8))
    (fp_line (start -1.05 1.5) (end 11.21 1.5) (layer "F.CrtYd") (width 0.05) (tstamp 5114c7bf-b955-49f3-a0a8-4b954c81bde0))
    (fp_line (start 11.21 1.5) (end 11.21 -1.5) (layer "F.CrtYd") (width 0.05) (tstamp f202141e-c20d-4cac-b016-06a44f2ecce8))
    (fp_line (start 8.23 1.25) (end 8.23 -1.25) (layer "F.Fab") (width 0.1) (tstamp 5bcace5d-edd0-4e19-92d0-835e43cf8eb2))
    (fp_line (start 8.23 -1.25) (end 1.93 -1.25) (layer "F.Fab") (width 0.1) (tstamp 6c2d26bc-6eca-436c-8025-79f817bf57d6))
    (fp_line (start 0 0) (end 1.93 0) (layer "F.Fab") (width 0.1) (tstamp 6ec113ca-7d27-4b14-a180-1e5e2fd1c167))
    (fp_line (start 1.93 -1.25) (end 1.93 1.25) (layer "F.Fab") (width 0.1) (tstamp bd065eaf-e495-4837-bdb3-129934de1fc7))
    (fp_line (start 1.93 1.25) (end 8.23 1.25) (layer "F.Fab") (width 0.1) (tstamp cb24efdd-07c6-4317-9277-131625b065ac))
    (fp_line (start 10.16 0) (end 8.23 0) (layer "F.Fab") (width 0.1) (tstamp e43dbe34-ed17-4e35-a5c7-2f1679b3c415))
    (pad "1" thru_hole circle (at 0 0 180) (size 1.6 1.6) (drill 0.8) (layers *.Cu *.Mask)
      (net 3 "Net-(D1-Pad2)") (pintype "passive") (tstamp b7199d9b-bebb-4100-9ad3-c2bd31e21d65))
    (pad "2" thru_hole oval (at 10.16 0 180) (size 1.6 1.6) (drill 0.8) (layers *.Cu *.Mask)
      (net 1 "Net-(BT1-Pad1)") (pintype "passive") (tstamp 770ad51a-7219-4633-b24a-bd20feb0a6c5))
    (model "${KICAD6_3DMODEL_DIR}/Resistor_THT.3dshapes/R_Axial_DIN0207_L6.3mm_D2.5mm_P10.16mm_Horizontal.wrl"
      (offset (xyz 0 0 0))
      (scale (xyz 1 1 1))
      (rotate (xyz 0 0 0))
    )
  )

  (footprint "LED_THT:LED_D5.0mm" (layer "F.Cu")
    (tedit 5995936A) (tstamp 7599133e-c681-4202-85d9-c20dac196c64)
    (at 68.58 101.6 90)
    (descr "LED, diameter 5.0mm, 2 pins, http://cdn-reichelt.de/documents/datenblatt/A500/LL-504BC2E-009.pdf")
    (tags "LED diameter 5.0mm 2 pins")
    (property "Sheetfile" "tutorial.kicad_sch")
    (property "Sheetname" "")
    (path "/9ad5b7a0-4ade-44c0-a32e-1e056f9ca967")
    (attr through_hole)
    (fp_text reference "D1" (at 1.27 -3.96 90) (layer "F.SilkS")
      (effects (font (size 1 1) (thickness 0.15)))
      (tstamp 730b670c-9bcf-4dcd-9a8d-fcaa61fb0955)
    )
    (fp_text value "2V RED" (at 1.27 3.96 90) (layer "F.Fab")
      (effects (font (size 1 1) (thickness 0.15)))
      (tstamp abe07c9a-17c3-43b5-b7a6-ae867ac27ea7)
    )
    (fp_text user "${REFERENCE}" (at 1.25 0 90) (layer "F.Fab")
      (effects (font (size 0.8 0.8) (thickness 0.2)))
      (tstamp 4a21e717-d46d-4d9e-8b98-af4ecb02d3ec)
    )
    (fp_line (start -1.29 -1.545) (end -1.29 1.545) (layer "F.SilkS") (width 0.12) (tstamp ec31c074-17b2-48e1-ab01-071acad3fa04))
    (fp_arc (start 4.26 -0.000462) (mid 2.072002 2.880433) (end -1.29 1.54483) (layer "F.SilkS") (width 0.12) (tstamp 60dcd1fe-7079-4cb8-b509-04558ccf5097))
    (fp_arc (start -1.29 -1.54483) (mid 2.072002 -2.880433) (end 4.26 0.000462) (layer "F.SilkS") (width 0.12) (tstamp c5eb1e4c-ce83-470e-8f32-e20ff1f886a3))
    (fp_circle (center 1.27 0) (end 3.77 0) (layer "F.SilkS") (width 0.12) (fill none) (tstamp 85b7594c-358f-454b-b2ad-dd0b1d67ed76))
    (fp_line (start 4.5 -3.25) (end -1.95 -3.25) (layer "F.CrtYd") (width 0.05) (tstamp 01e9b6e7-adf9-4ee7-9447-a588630ee4a2))
    (fp_line (start -1.95 3.25) (end 4.5 3.25) (layer "F.CrtYd") (width 0.05) (tstamp 16bd6381-8ac0-4bf2-9dce-ecc20c724b8d))
    (fp_line (start 4.5 3.25) (end 4.5 -3.25) (layer "F.CrtYd") (width 0.05) (tstamp 4f66b314-0f62-4fb6-8c3c-f9c6a75cd3ec))
    (fp_line (start -1.95 -3.25) (end -1.95 3.25) (layer "F.CrtYd") (width 0.05) (tstamp a5cd8da1-8f7f-4f80-bb23-0317de562222))
    (fp_line (start -1.23 -1.469694) (end -1.23 1.469694) (layer "F.Fab") (width 0.1) (tstamp ca87f11b-5f48-4b57-8535-68d3ec2fe5a9))
    (fp_arc (start -1.23 -1.469694) (mid 4.17 0.000016) (end -1.230016 1.469666) (layer "F.Fab") (width 0.1) (tstamp 7d928d56-093a-4ca8-aed1-414b7e703b45))
    (fp_circle (center 1.27 0) (end 3.77 0) (layer "F.Fab") (width 0.1) (fill none) (tstamp 8a650ebf-3f78-4ca4-a26b-a5028693e36d))
    (pad "1" thru_hole rect (at 0 0 90) (size 1.8 1.8) (drill 0.9) (layers *.Cu *.Mask)
      (net 2 "Net-(BT1-Pad2)") (pinfunction "K") (pintype "passive") (tstamp 4fb21471-41be-4be8-9687-66030f97befc))
    (pad "2" thru_hole circle (at 2.54 0 90) (size 1.8 1.8) (drill 0.9) (layers *.Cu *.Mask)
      (net 3 "Net-(D1-Pad2)") (pinfunction "A") (pintype "passive") (tstamp 0755aee5-bc01-4cb5-b830-583289df50a3))
    (model "${KICAD6_3DMODEL_DIR}/LED_THT.3dshapes/LED_D5.0mm.wrl"
      (offset (xyz 0 0 0))
      (scale (xyz 1 1 1))
      (rotate (xyz 0 0 0))
    )
  )

  (footprint "Connector_PinHeader_2.54mm:PinHeader_1x02_P2.54mm_Vertical" (layer "F.Cu")
    (tedit 59FED5CC) (tstamp 8c514922-ffe1-4e37-a260-e807409f2e0d)
    (at 58.42 99.06)
    (descr "Through hole straight pin header, 1x02, 2.54mm pitch, single row")
    (tags "Through hole pin header THT 1x02 2.54mm single row")
    (property "Sheetfile" "tutorial.kicad_sch")
    (property "Sheetname" "")
    (path "/fd76ac20-4b6a-4c35-a653-917a959f997a")
    (attr through_hole)
    (fp_text reference "BT1" (at 0 -2.33) (layer "F.SilkS")
      (effects (font (size 1 1) (thickness 0.15)))
      (tstamp b96fe6ac-3535-4455-ab88-ed77f5e46d6e)
    )
    (fp_text value "9V" (at 0 4.87) (layer "F.Fab")
      (effects (font (size 1 1) (thickness 0.15)))
      (tstamp 9f8381e9-3077-4453-a480-a01ad9c1a940)
    )
    (fp_text user "${REFERENCE}" (at 0 1.27 90) (layer "F.Fab")
      (effects (font (size 1 1) (thickness 0.15)))
      (tstamp c8c79177-94d4-43e2-a654-f0a5554fbb68)
    )
    (fp_line (start -1.33 -1.33) (end 0 -1.33) (layer "F.SilkS") (width 0.12) (tstamp 03caada9-9e22-4e2d-9035-b15433dfbb17))
    (fp_line (start 1.33 1.27) (end 1.33 3.87) (layer "F.SilkS") (width 0.12) (tstamp 1f3003e6-dce5-420f-906b-3f1e92b67249))
    (fp_line (start -1.33 1.27) (end -1.33 3.87) (layer "F.SilkS") (width 0.12) (tstamp 639c0e59-e95c-4114-bccd-2e7277505454))
    (fp_line (start -1.33 1.27) (end 1.33 1.27) (layer "F.SilkS") (width 0.12) (tstamp 8ca3e20d-bcc7-4c5e-9deb-562dfed9fecb))
    (fp_line (start -1.33 0) (end -1.33 -1.33) (layer "F.SilkS") (width 0.12) (tstamp a15a7506-eae4-4933-84da-9ad754258706))
    (fp_line (start -1.33 3.87) (end 1.33 3.87) (layer "F.SilkS") (width 0.12) (tstamp d3c11c8f-a73d-4211-934b-a6da255728ad))
    (fp_line (start 1.8 -1.8) (end -1.8 -1.8) (layer "F.CrtYd") (width 0.05) (tstamp 0ff508fd-18da-4ab7-9844-3c8a28c2587e))
    (fp_line (start -1.8 4.35) (end 1.8 4.35) (layer "F.CrtYd") (width 0.05) (tstamp 13c0ff76-ed71-4cd9-abb0-92c376825d5d))
    (fp_line (start 1.8 4.35) (end 1.8 -1.8) (layer "F.CrtYd") (width 0.05) (tstamp 378af8b4-af3d-46e7-89ae-deff12ca9067))
    (fp_line (start -1.8 -1.8) (end -1.8 4.35) (layer "F.CrtYd") (width 0.05) (tstamp a27eb049-c992-4f11-a026-1e6a8d9d0160))
    (fp_line (start 1.27 -1.27) (end 1.27 3.81) (layer "F.Fab") (width 0.1) (tstamp 68877d35-b796-44db-9124-b8e744e7412e))
    (fp_line (start -1.27 -0.635) (end -0.635 -1.27) (layer "F.Fab") (width 0.1) (tstamp 8412992d-8754-44de-9e08-115cec1a3eff))
    (fp_line (start -0.635 -1.27) (end 1.27 -1.27) (layer "F.Fab") (width 0.1) (tstamp c332fa55-4168-4f55-88a5-f82c7c21040b))
    (fp_line (start -1.27 3.81) (end -1.27 -0.635) (layer "F.Fab") (width 0.1) (tstamp df32840e-2912-4088-b54c-9a85f64c0265))
    (fp_line (start 1.27 3.81) (end -1.27 3.81) (layer "F.Fab") (width 0.1) (tstamp ffd175d1-912a-4224-be1e-a8198680f46b))
    (pad "1" thru_hole rect (at 0 0) (size 1.7 1.7) (drill 1) (layers *.Cu *.Mask)
      (net 1 "Net-(BT1-Pad1)") (pinfunction "+") (pintype "passive") (tstamp 40976bf0-19de-460f-ad64-224d4f51e16b))
    (pad "2" thru_hole oval (at 0 2.54) (size 1.7 1.7) (drill 1) (layers *.Cu *.Mask)
      (net 2 "Net-(BT1-Pad2)") (pinfunction "-") (pintype "passive") (tstamp e21aa84b-970e-47cf-b64f-3b55ee0e1b51))
    (model "${KICAD6_3DMODEL_DIR}/Connector_PinHeader_2.54mm.3dshapes/PinHeader_1x02_P2.54mm_Vertical.wrl"
      (offset (xyz 0 0 0))
      (scale (xyz 1 1 1))
      (rotate (xyz 0 0 0))
    )
  )

  (gr_poly
    (pts
      (xy 76.2 106.68)
      (xy 53.34 106.68)
      (xy 53.34 86.36)
      (xy 76.2 86.36)
    ) (layer "Edge.Cuts") (width 0.1) (fill none) (tstamp 76fef458-871c-4867-a311-2db07c25db94))

  (segment (start 58.42 91.44) (end 58.42 99.06) (width 0.25) (layer "F.Cu") (net 1) (tstamp 00d35d35-a124-4754-a19e-a3136e64fbfa))
  (segment (start 58.42 101.6) (end 68.58 101.6) (width 0.25) (layer "B.Cu") (net 2) (tstamp 0743ad70-c3aa-4d87-8b4e-cc5d52fb95d5))
  (segment (start 68.58 91.44) (end 68.58 99.06) (width 0.25) (layer "F.Cu") (net 3) (tstamp adffe7bf-3d92-4a46-b38a-4af65fbd0352))

)
